\beamer@endinputifotherversion {3.36pt}
\beamer@sectionintoc {2}{Magnetism}{3}{0}{1}
\beamer@sectionintoc {3}{Model}{8}{0}{2}
\beamer@sectionintoc {4}{Method}{9}{0}{3}
\beamer@sectionintoc {5}{Results}{11}{0}{4}
