\relax 
\providecommand\hyper@newdestlabel[2]{}
\providecommand\HyperFirstAtBeginDocument{\AtBeginDocument}
\HyperFirstAtBeginDocument{\ifx\hyper@anchor\@undefined
\global\let\oldcontentsline\contentsline
\gdef\contentsline#1#2#3#4{\oldcontentsline{#1}{#2}{#3}}
\global\let\oldnewlabel\newlabel
\gdef\newlabel#1#2{\newlabelxx{#1}#2}
\gdef\newlabelxx#1#2#3#4#5#6{\oldnewlabel{#1}{{#2}{#3}}}
\AtEndDocument{\ifx\hyper@anchor\@undefined
\let\contentsline\oldcontentsline
\let\newlabel\oldnewlabel
\fi}
\fi}
\global\let\hyper@last\relax 
\gdef\HyperFirstAtBeginDocument#1{#1}
\providecommand*\HyPL@Entry[1]{}
\HyPL@Entry{0<</P(1)>>}
\@writefile{toc}{\beamer@endinputifotherversion {3.36pt}}
\@writefile{nav}{\beamer@endinputifotherversion {3.36pt}}
\@writefile{nav}{\headcommand {\slideentry {0}{0}{1}{1/1}{}{0}}}
\@writefile{nav}{\headcommand {\beamer@framepages {1}{1}}}
\HyPL@Entry{1<</P(2)>>}
\@writefile{nav}{\headcommand {\slideentry {1}{0}{1}{2/2}{}{0}}}
\@writefile{nav}{\headcommand {\beamer@framepages {2}{2}}}
\HyPL@Entry{2<</P(3)>>}
\@writefile{toc}{\beamer@sectionintoc {2}{Magnetism}{3}{0}{1}}
\@writefile{nav}{\headcommand {\sectionentry {2}{Magnetism}{3}{Magnetism}{0}}}
\@writefile{nav}{\headcommand {\beamer@sectionpages {2}{2}}}
\@writefile{nav}{\headcommand {\beamer@subsectionpages {2}{2}}}
\@writefile{nav}{\headcommand {\slideentry {2}{0}{1}{3/3}{}{0}}}
\@writefile{nav}{\headcommand {\beamer@framepages {3}{3}}}
\HyPL@Entry{3<</P(4)>>}
\@writefile{nav}{\headcommand {\slideentry {2}{0}{2}{4/4}{}{0}}}
\@writefile{nav}{\headcommand {\beamer@framepages {4}{4}}}
\HyPL@Entry{4<</P(5)>>}
\@writefile{nav}{\headcommand {\slideentry {2}{0}{3}{5/5}{}{0}}}
\@writefile{nav}{\headcommand {\beamer@framepages {5}{5}}}
\HyPL@Entry{5<</P(6)>>}
\@writefile{nav}{\headcommand {\slideentry {2}{0}{4}{6/6}{}{0}}}
\@writefile{nav}{\headcommand {\beamer@framepages {6}{6}}}
\HyPL@Entry{6<</P(7)>>}
\@writefile{nav}{\headcommand {\slideentry {2}{0}{5}{7/7}{}{0}}}
\@writefile{nav}{\headcommand {\beamer@framepages {7}{7}}}
\HyPL@Entry{7<</P(8)>>}
\@writefile{toc}{\beamer@sectionintoc {3}{Model}{8}{0}{2}}
\@writefile{nav}{\headcommand {\sectionentry {3}{Model}{8}{Model}{0}}}
\@writefile{nav}{\headcommand {\beamer@sectionpages {3}{7}}}
\@writefile{nav}{\headcommand {\beamer@subsectionpages {3}{7}}}
\@writefile{nav}{\headcommand {\slideentry {3}{0}{1}{8/8}{}{0}}}
\@writefile{nav}{\headcommand {\beamer@framepages {8}{8}}}
\HyPL@Entry{8<</P(9)>>}
\@writefile{toc}{\beamer@sectionintoc {4}{Method}{9}{0}{3}}
\@writefile{nav}{\headcommand {\sectionentry {4}{Method}{9}{Method}{0}}}
\@writefile{nav}{\headcommand {\beamer@sectionpages {8}{8}}}
\@writefile{nav}{\headcommand {\beamer@subsectionpages {8}{8}}}
\@writefile{nav}{\headcommand {\slideentry {4}{0}{1}{9/9}{}{0}}}
\@writefile{nav}{\headcommand {\beamer@framepages {9}{9}}}
\HyPL@Entry{9<</P(10)>>}
\@writefile{nav}{\headcommand {\slideentry {4}{0}{2}{10/10}{}{0}}}
\@writefile{nav}{\headcommand {\beamer@framepages {10}{10}}}
\HyPL@Entry{10<</P(11)>>}
\@writefile{toc}{\beamer@sectionintoc {5}{Results}{11}{0}{4}}
\@writefile{nav}{\headcommand {\sectionentry {5}{Results}{11}{Results}{0}}}
\@writefile{nav}{\headcommand {\beamer@sectionpages {9}{10}}}
\@writefile{nav}{\headcommand {\beamer@subsectionpages {9}{10}}}
\@writefile{nav}{\headcommand {\slideentry {5}{0}{1}{11/11}{}{0}}}
\@writefile{nav}{\headcommand {\beamer@framepages {11}{11}}}
\HyPL@Entry{11<</P(12)>>}
\@writefile{nav}{\headcommand {\slideentry {5}{0}{2}{12/12}{}{0}}}
\@writefile{nav}{\headcommand {\beamer@framepages {12}{12}}}
\HyPL@Entry{12<</P(13)>>}
\@writefile{nav}{\headcommand {\slideentry {5}{0}{3}{13/13}{}{0}}}
\@writefile{nav}{\headcommand {\beamer@framepages {13}{13}}}
\HyPL@Entry{13<</P(14)>>}
\@writefile{nav}{\headcommand {\slideentry {6}{0}{1}{14/14}{}{0}}}
\@writefile{nav}{\headcommand {\beamer@framepages {14}{14}}}
\HyPL@Entry{14<</P(15)>>}
\@writefile{nav}{\headcommand {\slideentry {6}{0}{2}{15/15}{}{0}}}
\@writefile{nav}{\headcommand {\beamer@framepages {15}{15}}}
\HyPL@Entry{15<</P(16)>>}
\@writefile{nav}{\headcommand {\slideentry {6}{0}{3}{16/16}{}{0}}}
\@writefile{nav}{\headcommand {\beamer@framepages {16}{16}}}
\HyPL@Entry{16<</P(17)>>}
\@writefile{nav}{\headcommand {\slideentry {6}{0}{4}{17/17}{}{0}}}
\@writefile{nav}{\headcommand {\beamer@framepages {17}{17}}}
\HyPL@Entry{17<</P(18)>>}
\@writefile{nav}{\headcommand {\slideentry {6}{0}{5}{18/18}{}{0}}}
\@writefile{nav}{\headcommand {\beamer@framepages {18}{18}}}
\@writefile{nav}{\headcommand {\beamer@partpages {1}{18}}}
\@writefile{nav}{\headcommand {\beamer@subsectionpages {14}{18}}}
\@writefile{nav}{\headcommand {\beamer@sectionpages {14}{18}}}
\@writefile{nav}{\headcommand {\beamer@documentpages {18}}}
\@writefile{nav}{\headcommand {\def \inserttotalframenumber {18}}}
