%!PS-Adobe-3.0
%%Creator: cairo 1.14.10 (http://cairographics.org)
%%CreationDate: Mon Dec 11 14:44:49 2017
%%Pages: 1
%%DocumentData: Clean7Bit
%%LanguageLevel: 2
%%DocumentMedia: 54x29mm 154 81 0 () ()
%%BoundingBox: 12 12 148 69
%%EndComments
%%BeginProlog
/languagelevel where
{ pop languagelevel } { 1 } ifelse
2 lt { /Helvetica findfont 12 scalefont setfont 50 500 moveto
  (This print job requires a PostScript Language Level 2 printer.) show
  showpage quit } if
/q { gsave } bind def
/Q { grestore } bind def
/cm { 6 array astore concat } bind def
/w { setlinewidth } bind def
/J { setlinecap } bind def
/j { setlinejoin } bind def
/M { setmiterlimit } bind def
/d { setdash } bind def
/m { moveto } bind def
/l { lineto } bind def
/c { curveto } bind def
/h { closepath } bind def
/re { exch dup neg 3 1 roll 5 3 roll moveto 0 rlineto
      0 exch rlineto 0 rlineto closepath } bind def
/S { stroke } bind def
/f { fill } bind def
/f* { eofill } bind def
/n { newpath } bind def
/W { clip } bind def
/W* { eoclip } bind def
/BT { } bind def
/ET { } bind def
/pdfmark where { pop globaldict /?pdfmark /exec load put }
    { globaldict begin /?pdfmark /pop load def /pdfmark
    /cleartomark load def end } ifelse
/BDC { mark 3 1 roll /BDC pdfmark } bind def
/EMC { mark /EMC pdfmark } bind def
/cairo_store_point { /cairo_point_y exch def /cairo_point_x exch def } def
/Tj { show currentpoint cairo_store_point } bind def
/TJ {
  {
    dup
    type /stringtype eq
    { show } { -0.001 mul 0 cairo_font_matrix dtransform rmoveto } ifelse
  } forall
  currentpoint cairo_store_point
} bind def
/cairo_selectfont { cairo_font_matrix aload pop pop pop 0 0 6 array astore
    cairo_font exch selectfont cairo_point_x cairo_point_y moveto } bind def
/Tf { pop /cairo_font exch def /cairo_font_matrix where
      { pop cairo_selectfont } if } bind def
/Td { matrix translate cairo_font_matrix matrix concatmatrix dup
      /cairo_font_matrix exch def dup 4 get exch 5 get cairo_store_point
      /cairo_font where { pop cairo_selectfont } if } bind def
/Tm { 2 copy 8 2 roll 6 array astore /cairo_font_matrix exch def
      cairo_store_point /cairo_font where { pop cairo_selectfont } if } bind def
/g { setgray } bind def
/rg { setrgbcolor } bind def
/d1 { setcachedevice } bind def
/cairo_flush_ascii85_file { cairo_ascii85_file status { cairo_ascii85_file flushfile } if } def
/cairo_image { image cairo_flush_ascii85_file } def
/cairo_imagemask { imagemask cairo_flush_ascii85_file } def
/cairo_set_page_size {
  % Change paper size, but only if different from previous paper size otherwise
  % duplex fails. PLRM specifies a tolerance of 5 pts when matching paper size
  % so we use the same when checking if the size changes.
  /setpagedevice where {
    pop currentpagedevice
    /PageSize known {
      2 copy
      currentpagedevice /PageSize get aload pop
      exch 4 1 roll
      sub abs 5 gt
      3 1 roll
      sub abs 5 gt
      or
    } {
      true
    } ifelse
    {
      2 array astore
      2 dict begin
        /PageSize exch def
        /ImagingBBox null def
      currentdict end
      setpagedevice
    } {
      pop pop
    } ifelse
  } {
    pop
  } ifelse
} def
%%EndProlog
%%BeginSetup
%%EndSetup
%%Page: 1 1
%%BeginPageSetup
%%PageMedia: 54x29mm
%%PageBoundingBox: 12 12 148 69
154 81 cairo_set_page_size
%%EndPageSetup
q 12 12 136 57 rectclip q
0.909804 0.466667 0.133333 rg
97.957 22.656 m 97.957 24.762 l 107.16 24.762 l 107.16 22.656 l 103.656
 22.656 l 103.656 12.832 l 101.469 12.832 l 101.469 22.656 l h
97.957 22.656 m f
116.648 12.832 m 108.992 12.832 l 108.992 24.754 l 116.648 24.754 l 116.648
 22.668 l 111.172 22.668 l 111.172 19.887 l 115.613 19.887 l 115.613 17.797
 l 111.172 17.797 l 111.172 14.918 l 116.648 14.918 l h
116.648 12.832 m f
120.27 18.797 m 120.27 18.258 120.371 17.754 120.578 17.277 c 120.789 16.805
 121.07 16.391 121.43 16.039 c 121.785 15.688 122.203 15.406 122.676 15.203
 c 123.148 14.996 123.656 14.895 124.195 14.895 c 124.609 14.895 125.004
 14.957 125.371 15.082 c 125.742 15.207 126.082 15.379 126.398 15.594 c 
126.523 15.672 126.652 15.73 126.797 15.777 c 126.938 15.82 127.086 15.844
 127.238 15.844 c 127.488 15.844 127.703 15.805 127.875 15.723 c 128.051
 15.641 128.215 15.531 128.363 15.387 c 128.871 14.879 l 128.559 14.547 
128.223 14.246 127.863 13.98 c 127.504 13.715 127.125 13.484 126.727 13.297
 c 126.332 13.109 125.922 12.965 125.496 12.863 c 125.07 12.766 124.637 
12.715 124.195 12.715 c 123.352 12.715 122.559 12.875 121.82 13.195 c 121.078
 13.512 120.43 13.945 119.875 14.496 c 119.32 15.043 118.883 15.688 118.566
 16.426 c 118.246 17.164 118.086 17.953 118.086 18.797 c 118.086 19.355 
118.16 19.898 118.305 20.414 c 118.449 20.934 118.652 21.418 118.918 21.867
 c 119.188 22.316 119.504 22.727 119.875 23.098 c 120.25 23.469 120.66 23.789
 121.113 24.051 c 121.562 24.316 122.051 24.52 122.57 24.664 c 123.094 24.809
 123.633 24.879 124.195 24.879 c 124.637 24.879 125.07 24.828 125.496 24.73
 c 125.922 24.629 126.332 24.484 126.727 24.297 c 127.125 24.109 127.504
 23.879 127.863 23.613 c 128.223 23.348 128.559 23.051 128.871 22.715 c 
128.363 22.207 l 128.219 22.062 128.055 21.949 127.867 21.863 c 127.684 
21.777 127.473 21.734 127.238 21.734 c 126.934 21.734 126.656 21.824 126.398
 22 c 126.078 22.219 125.73 22.387 125.363 22.508 c 124.996 22.629 124.605
 22.691 124.195 22.691 c 123.656 22.691 123.148 22.59 122.676 22.383 c 122.203
 22.18 121.785 21.898 121.43 21.547 c 121.07 21.195 120.789 20.781 120.578
 20.312 c 120.371 19.84 120.27 19.336 120.27 18.797 c h
120.27 18.797 m f
141.496 12.832 m 139.309 12.832 l 139.309 17.773 l 133.453 17.773 l 133.453
 12.832 l 131.27 12.832 l 131.27 24.754 l 133.453 24.754 l 133.453 19.863
 l 139.309 19.863 l 139.309 24.754 l 141.496 24.754 l h
141.496 12.832 m f
147.008 12.832 m 146.711 12.832 l 146.711 14.496 l 146.699 14.496 l 146.027
 12.832 l 145.844 12.832 l 145.191 14.496 l 145.184 14.496 l 145.184 12.832
 l 144.883 12.832 l 144.883 14.797 l 145.375 14.797 l 145.938 13.41 l 146.523
 14.797 l 147.008 14.797 l h
147.008 12.832 m f
144.523 14.496 m 143.879 14.496 l 143.879 12.832 l 143.582 12.832 l 143.582
 14.496 l 142.938 14.496 l 142.938 14.797 l 144.523 14.797 l h
144.523 14.496 m f
18.383 16.449 m 18.383 16.449 19.457 18.918 19.992 20.145 c 20.527 21.371
 21.066 22.602 21.609 23.84 c 21.73 24.121 21.922 24.344 22.18 24.508 c 
22.438 24.672 22.723 24.754 23.031 24.754 c 24.391 24.754 l 19.188 12.832
 l 17.207 12.832 l 12.008 24.754 l 13.355 24.754 l 13.508 24.754 13.652 
24.73 13.801 24.688 c 13.949 24.645 14.086 24.578 14.211 24.496 c 14.34 
24.414 14.453 24.316 14.555 24.207 c 14.652 24.094 14.73 23.973 14.789 23.84
 c 18.008 16.461 l 18.195 16.027 l h
18.383 16.449 m f
26.219 24.754 2.188 -11.922 re f
52.914 19.215 m 52.914 14.211 l 52.613 13.914 52.289 13.668 51.938 13.473
 c 51.59 13.277 51.223 13.125 50.84 13.012 c 50.457 12.898 50.059 12.82 
49.648 12.777 c 49.234 12.734 48.816 12.715 48.395 12.715 c 47.551 12.715
 46.762 12.875 46.023 13.195 c 45.285 13.512 44.641 13.945 44.086 14.496
 c 43.531 15.043 43.094 15.688 42.773 16.426 c 42.457 17.164 42.297 17.953
 42.297 18.797 c 42.297 19.355 42.367 19.898 42.512 20.414 c 42.656 20.934
 42.863 21.418 43.129 21.867 c 43.395 22.316 43.715 22.727 44.086 23.098
 c 44.457 23.469 44.867 23.789 45.32 24.051 c 45.773 24.316 46.258 24.52
 46.777 24.664 c 47.293 24.809 47.836 24.879 48.395 24.879 c 48.84 24.879
 49.273 24.828 49.699 24.73 c 50.129 24.629 50.539 24.484 50.934 24.297 
c 51.324 24.109 51.703 23.879 52.062 23.613 c 52.426 23.348 52.762 23.051
 53.07 22.715 c 52.57 22.207 l 52.418 22.047 52.25 21.93 52.066 21.852 c
 51.887 21.773 51.68 21.734 51.449 21.734 c 51.137 21.734 50.855 21.824 
50.602 22 c 50.285 22.219 49.941 22.387 49.57 22.508 c 49.203 22.629 48.809
 22.691 48.395 22.691 c 47.863 22.691 47.355 22.59 46.879 22.383 c 46.402
 22.18 45.988 21.898 45.633 21.547 c 45.277 21.195 44.996 20.781 44.789 
20.312 c 44.578 19.84 44.477 19.336 44.477 18.797 c 44.477 18.246 44.582
 17.734 44.801 17.262 c 45.016 16.789 45.309 16.375 45.672 16.023 c 46.039
 15.668 46.465 15.395 46.949 15.195 c 47.438 14.996 47.945 14.895 48.477
 14.895 c 48.738 14.898 49.004 14.922 49.27 14.961 c 49.496 14.996 49.738
 15.047 50 15.121 c 50.262 15.191 50.5 15.293 50.715 15.426 c 50.715 17.109
 l 50.484 17.113 50.254 17.117 50.031 17.121 c 49.805 17.125 49.605 17.168
 49.43 17.25 c 49.254 17.332 49.117 17.473 49.012 17.668 c 48.906 17.867
 48.852 18.16 48.852 18.547 c 48.852 19.215 l h
52.914 19.215 m f
56.434 24.754 2.191 -11.922 re f
64.406 21.75 m 64.406 12.832 l 62.223 12.832 l 62.223 24.754 l 64.145 24.754
 l 64.414 24.754 64.648 24.715 64.848 24.637 c 65.051 24.559 65.211 24.441
 65.328 24.281 c 66.16 23.098 70.629 16.781 70.629 16.781 c 70.629 24.754
 l 72.809 24.754 l 72.809 12.832 l 70.785 12.832 l h
64.406 21.75 m f
76.41 24.754 2.188 -11.922 re f
87.609 24.754 m 85.637 24.754 l 80.43 12.832 l 81.785 12.832 l 81.934 12.832
 82.082 12.852 82.23 12.898 c 82.375 12.941 82.512 13.004 82.641 13.086 
c 82.77 13.164 82.883 13.262 82.98 13.371 c 83.082 13.484 83.16 13.605 83.215
 13.738 c 83.914 15.352 l 85.176 18.254 l 85.188 18.254 l 86.621 21.586 
l 88.367 17.539 l 87.375 17.539 l 86.633 17.539 85.965 17.102 85.668 16.422
 c 85.203 15.352 l 89.332 15.352 l 90.039 13.738 l 90.164 13.457 90.355 
13.234 90.613 13.074 c 90.867 12.91 91.148 12.832 91.461 12.832 c 92.816
 12.832 l h
87.609 24.754 m f
34.188 12.832 m 32.008 12.832 l 32.008 24.754 l 36.484 24.754 l 37.062 
24.754 37.582 24.645 38.051 24.43 c 38.52 24.215 38.922 23.926 39.254 23.566
 c 39.586 23.211 39.844 22.805 40.027 22.348 c 40.211 21.895 40.301 21.426
 40.301 20.945 c 40.301 20.594 40.254 20.254 40.16 19.922 c 40.066 19.586
 39.93 19.273 39.746 18.98 c 39.562 18.688 39.336 18.414 39.07 18.168 c 
38.805 17.922 38.5 17.715 38.156 17.543 c 38.738 16.75 39.316 15.961 39.895
 15.184 c 40.473 14.402 41.055 13.621 41.641 12.832 c 39.938 12.832 l 39.82
 12.832 39.684 12.859 39.527 12.906 c 39.375 12.957 39.211 13.035 39.043
 13.145 c 38.875 13.254 38.699 13.395 38.52 13.566 c 38.336 13.738 38.16
 13.949 37.988 14.195 c 35.82 17.125 l 34.188 17.125 l h
36.551 19.312 m 36.762 19.312 36.961 19.359 37.152 19.445 c 37.344 19.535
 37.512 19.656 37.652 19.805 c 37.793 19.953 37.906 20.129 37.988 20.324
 c 38.074 20.52 38.113 20.727 38.113 20.934 c 38.113 21.152 38.074 21.359
 37.988 21.555 c 37.906 21.754 37.793 21.926 37.652 22.074 c 37.512 22.227
 37.344 22.344 37.152 22.434 c 36.961 22.52 36.762 22.566 36.551 22.566 
c 34.188 22.566 l 34.188 19.312 l h
36.551 19.312 m f
0.52549 0.121569 0.254902 rg
81.691 68.473 m 76.828 68.473 72.355 65.809 70.043 61.531 c 67.195 56.266
 l 66.863 55.652 l 66.543 55.059 l 57.934 39.152 l 43.887 65.41 l 50.133
 65.41 l 55.168 56.055 l 57.805 51.148 l 60.531 56.008 l 65.805 65.41 l 
70.359 65.41 l 71.461 66.637 72.746 67.668 74.164 68.473 c 64.012 68.473
 l 57.863 57.508 l 51.965 68.473 l 38.777 68.473 l 57.922 32.691 l 68.578
 52.387 l 70.344 55.652 l 70.676 56.266 l 72.723 60.051 l 72.836 60.258 
72.953 60.461 73.078 60.656 c 74.445 62.816 76.559 64.367 78.98 65.039 c
 79.637 65.223 80.32 65.34 81.016 65.387 c 81.25 65.402 81.48 65.41 81.715
 65.41 c 109.613 65.41 l 106.797 60.16 l 93.887 60.16 l 93.023 58.539 l 
81.082 36.098 l 74.746 36.098 l 85.223 55.551 l 87.652 60.066 l 75.082 60.066
 l 74.363 58.93 73.336 57.004 73.336 57.004 c 82.527 57.004 l 69.621 33.035
 l 82.918 33.035 l 95.727 57.102 l 108.629 57.102 l 114.73 68.473 l h
81.691 68.473 m f
Q Q
showpage
%%Trailer
%%EOF
